178,113
179,113
180,113
181,113
182,113
183,113
184,113
185,113
186,113
187,114
188,114
189,114
190,115
191,115
192,115
193,115
193,312
193,313
193,314
193,315
193,316
193,317
194,116
194,311
194,318
194,319
194,320
195,117
195,311
195,321
196,117
196,311
196,321
197,118
197,311
197,321
198,118
198,311
198,321
199,118
199,310
199,321
200,119
200,310
200,322
201,119
201,309
201,323
202,119
202,308
202,309
202,323
203,119
203,306
203,307
203,324
204,119
204,305
204,324
205,119
205,304
205,324
206,119
206,303
206,324
207,119
207,303
207,324
208,119
208,303
208,324
209,119
209,303
209,324
210,119
210,302
210,303
210,324
211,118
211,301
211,324
212,118
212,300
212,325
213,118
213,300
213,325
214,118
214,300
214,325
215,117
215,298
215,300
215,325
216,117
216,297
216,299
216,300
216,325
217,117
217,297
217,299
217,300
217,324
218,117
218,296
218,324
219,117
219,295
219,324
220,117
220,295
220,323
221,117
221,295
221,323
222,117
222,294
222,322
223,117
223,294
223,322
224,118
224,293
224,321
225,118
225,293
225,321
226,118
226,294
226,321
227,119
227,295
227,321
228,120
228,293
228,294
228,295
228,321
229,120
229,292
229,320
230,121
230,291
230,320
231,121
231,291
231,320
232,122
232,291
232,319
233,123
233,291
233,319
234,124
234,292
234,318
235,125
235,126
235,292
235,318
236,127
236,292
236,318
237,128
237,293
237,318
238,129
238,293
238,319
239,130
239,131
239,293
239,319
240,132
240,133
240,293
240,319
241,134
241,135
241,293
241,318
242,136
242,137
242,293
242,317
243,138
243,293
243,317
244,139
244,140
244,293
244,316
245,141
245,293
245,315
246,142
246,214
246,215
246,292
246,315
247,143
247,203
247,212
247,213
247,216
247,292
247,314
248,144
248,145
248,193
248,194
248,195
248,196
248,197
248,202
248,204
248,211
248,217
248,289
248,290
248,291
248,292
248,314
249,146
249,147
249,190
249,191
249,192
249,198
249,202
249,204
249,210
249,211
249,216
249,288
249,313
250,148
250,189
250,198
250,199
250,200
250,201
250,204
250,208
250,209
250,215
250,287
250,313
251,148
251,190
251,205
251,207
251,213
251,214
251,287
251,312
252,149
252,183
252,190
252,205
252,206
252,207
252,211
252,212
252,285
252,286
252,312
253,150
253,151
253,181
253,182
253,184
253,188
253,189
253,190
253,210
253,284
253,311
254,152
254,153
254,173
254,174
254,175
254,176
254,177
254,178
254,179
254,180
254,185
254,186
254,187
254,209
254,284
254,311
255,154
255,155
255,156
255,158
255,171
255,172
255,183
255,184
255,185
255,209
255,261
255,262
255,263
255,264
255,265
255,284
255,311
256,157
256,159
256,160
256,169
256,170
256,181
256,182
256,183
256,184
256,185
256,209
256,260
256,266
256,267
256,283
256,310
257,161
257,162
257,163
257,164
257,165
257,166
257,167
257,168
257,181
257,182
257,209
257,210
257,211
257,260
257,268
257,282
257,310
258,212
258,260
258,269
258,270
258,271
258,272
258,282
258,310
259,213
259,260
259,273
259,280
259,281
259,310
260,212
260,258
260,259
260,273
260,279
260,310
261,210
261,211
261,257
261,274
261,275
261,276
261,277
261,278
261,309
262,210
262,256
262,257
262,309
263,210
263,211
263,232
263,233
263,255
263,309
264,212
264,231
264,234
264,235
264,236
264,237
264,252
264,253
264,254
264,309
265,213
265,214
265,215
265,216
265,220
265,221
265,222
265,223
265,224
265,225
265,226
265,227
265,231
265,238
265,239
265,240
265,241
265,242
265,249
265,250
265,251
265,309
266,217
266,218
266,219
266,228
266,231
266,243
266,244
266,245
266,246
266,247
266,248
266,309
267,228
267,230
267,308
268,228
268,230
268,308
269,228
269,229
269,230
269,308
270,308
271,308
272,308
273,308
274,308
275,308
276,308
277,309
278,310
279,310
280,310
281,311
282,311
283,312
284,312
285,312
286,313
287,314
288,314
289,315
290,315
291,316
291,317
292,318
293,319
294,320
295,320
296,321
296,322
297,323
297,324
298,325
298,326
299,327
300,327
300,328
301,329
302,330
303,330
304,330
304,331
304,332
305,333
306,334
307,335
308,334
309,335
310,336
311,336
312,337
313,337
314,338
315,339
315,340
316,341
316,342
317,343
317,344
317,345
317,346
317,347
317,348
317,349
318,350
319,351
320,351
321,352
322,352
323,353
324,353
325,354
325,355
326,356
326,357
327,358
328,359
329,360
329,361
329,362
329,363
329,364
329,365
329,366
329,367
330,368
331,368
332,369
333,370
333,372
334,367
334,368
334,369
334,371
334,373
335,367
335,372
336,367
337,367
338,368
339,367
339,370
339,371
339,372
340,367
340,368
340,369
340,373
341,373
341,380
342,374
342,376
342,379
342,381
343,375
343,377
343,379
343,381
344,378
344,380
345,377
346,377
347,377
348,377
349,371
349,372
349,374
349,375
349,376
350,371
350,373
351,371
351,372
351,375
352,373
352,374
352,376
353,376
354,376
355,375
356,375
357,375
358,375
359,375
360,375
361,375
362,375
363,375
364,368
364,369
364,370
364,373
364,374
365,368
365,369
365,370
365,371
365,372
366,367
366,368
366,371
367,367
367,368
367,371
368,371
368,375
369,369
369,370
369,374
369,376
370,369
370,374
370,377
371,370
371,371
371,374
371,377
372,372
372,374
372,377
373,372
373,374
373,377
374,371
374,375
374,378
375,371
375,375
375,379
376,371
376,376
376,380
377,371
377,376
377,380
378,371
378,377
378,380
379,371
379,378
379,381
379,382
380,372
380,378
380,381
380,383
381,370
381,371
381,376
381,377
381,378
381,382
381,383
382,369
382,375
382,382
382,384
383,368
383,375
383,383
384,367
384,368
384,369
384,375
384,383
385,364
385,365
385,366
385,367
385,370
385,375
385,384
386,363
386,366
386,367
386,369
386,374
386,375
386,385
387,363
387,364
387,365
387,369
387,373
387,385
388,363
388,370
388,372
388,385
389,369
389,371
389,386
390,369
390,372
390,386
391,369
391,372
391,386
392,369
392,371
392,386
393,369
393,372
393,386
394,369
394,372
394,386
395,369
395,372
395,384
395,385
396,369
396,372
396,383
397,369
397,371
397,372
397,383
397,388
398,369
398,370
398,383
398,387
398,389
399,369
399,371
399,372
399,382
399,387
399,390
400,369
400,372
400,382
400,387
400,390
401,369
401,372
401,382
401,386
401,387
401,391
402,369
402,372
402,382
402,384
402,385
402,391
403,370
403,372
403,381
403,383
403,392
403,393
404,371
404,373
404,381
404,382
404,394
405,371
405,372
405,373
405,374
405,375
405,395
406,374
406,375
406,395
407,374
407,375
407,395
408,396
409,397
410,397
411,397
412,398
413,398
414,398
415,399
416,399
417,399
418,399
419,400
420,400
421,400
422,399
423,397
423,398
424,397
424,398
424,399
424,400
424,401
424,402
424,403
424,404
424,405
425,406
425,407
425,408
425,409
425,410
426,411
426,412
427,413
427,414
427,415
428,416
428,417
429,418
429,419
430,407
430,408
430,409
430,420
430,421
430,422
430,423
431,407
431,410
431,411
431,412
431,413
431,414
431,415
431,424
431,425
432,406
432,416
432,417
432,418
432,419
432,420
432,421
432,422
432,423
432,426
433,406
433,407
433,424
433,425
434,408
434,409
434,447
435,410
435,411
435,446
435,448
436,412
436,413
436,414
436,415
436,416
436,417
436,418
436,419
436,420
436,421
436,422
436,423
436,424
436,425
436,426
436,427
436,440
436,441
436,447
437,428
437,429
437,430
437,439
437,442
438,431
438,432
438,439
438,442
